…
ℹ Use `spec()` to retrieve the full column specification for this data.
ℹ Specify the column types or set `show_col_types = FALSE` to quiet this message.
> 
> # Get the sibling imputed analysis sample.
> analysis.data <- ukb.data %>%
+     filter(analysis_sample == 1)
> 
> #! Test.
> analysis.data %>% head(100) %>% print()
# A tibble: 100 × 62
      eid edpgi_all_imputed_ra…¹ edpgi_exclude_impute…² famid sex_male visityear
    <dbl>                  <dbl>                  <dbl> <dbl>    <dbl>     <dbl>
 1 1.00e6                  0.358              -0.228    13256        0      2010
 2 1.00e6                  0.784               0.000385 14770        0      2008
 3 1.00e6                 -0.315              -0.453     3914        1      2007
 4 1.00e6                  0.128               0.188    17706        1      2009
 5 1.00e6                 -0.843              -0.660      734        0      2009
 6 1.00e6                 -0.952              -0.456    19414        1      2007
 7 1.01e6                 -0.689              -0.0358   13506        0      2008
 8 1.01e6                 -0.405               0.0269    4494        0      2008
 9 1.01e6                  0.115               1.30     12919        1      2010
10 1.01e6                  0.662               0.171     7224        0      2009
# ℹ 90 more rows
# ℹ abbreviated names: ¹​edpgi_all_imputed_random, ²​edpgi_exclude_imputed_random
# ℹ 56 more variables: recruitedage <dbl>, genetic_euroancest <dbl>,
#   urban <dbl>, birth_n_coord <dbl>, birth_e_coord <dbl>, birth_country <dbl>,
#   birthyear <dbl>, birthmonth <dbl>, edpgi_all_raw_self <dbl>,
#   edpgi_all_imputed_self <dbl>, edpgi_all_imputed_parental <dbl>,
#   edpgi_all_imputed_paternal <dbl>, edpgi_all_imputed_maternal <dbl>, …
…
