…
ℹ Use `spec()` to retrieve the full column specification for this data.
ℹ Specify the column types or set `show_col_types = FALSE` to quiet this message.
> 
> # SHow how these data look.
> print(ukb_pheno.data)
# A tibble: 502,129 × 66
    ...1 participant.eid participant.p31 participant.p34 participant.p52
   <dbl>           <dbl>           <dbl>           <dbl>           <dbl>
 1     0         1000061               0            1951               7
 2     1         1000087               0            1944               4
 3     2         1000113               0            1939               1
 4     3         1000152               1            1961              12
 5     4         1000264               1            1946               6
 6     5         1000298               1            1941              12
 7     6         1000374               0            1951              12
 8     7         1000540               0            1966               8
 9     8         1000634               0            1966              12
10     9         1000925               0            1966               3
# ℹ 502,119 more rows
# ℹ 61 more variables: participant.p53_i0 <date>, participant.p53_i1 <date>,
#   participant.p53_i2 <date>, participant.p53_i3 <date>,
#   participant.p738_i0 <dbl>, participant.p738_i1 <dbl>,
#   participant.p738_i2 <dbl>, participant.p738_i3 <dbl>,
#   participant.p21022 <dbl>, participant.p20143 <date>,
#   participant.p6138_i0 <chr>, participant.p6138_i1 <chr>, …
…
> ## The two imputed Ed PGIs, for the sibling subsample.
> # Get the columns referring to own PGI, and family members' 
> ukb_imputed_edpgi_all.data <- ukb_imputed_edpgi_all.data  %>%
+     transmute(
+         eid                        = IID,
+         famid                      = FID,
+         edpgi_all_imputed_self     = proband,
+         edpgi_all_imputed_sibling  = sibling,
+         edpgi_all_imputed_paternal = paternal,
+         edpgi_all_imputed_maternal = maternal)
> 
> 
> #! Test: Does 0.5 (child + sibling) = parental mean hold true, on average?
> ukb_imputed_edpgi_all.data %>% head(100) %>% print()
# A tibble: 100 × 6
       eid famid edpgi_all_imputed_self edpgi_all_imputed_sibling
     <dbl> <dbl>                  <dbl>                     <dbl>
 1 1430373   497                  1.69                    0.799  
 2 3590371  4113                 -0.202                   0.495  
 3 2924942 14230                  0.649                   0.308  
 4 2983129  5171                 -0.652                  -0.944  
 5 4484251 10527                  0.802                   0.765  
 6 2252911  1599                  0.420                  -0.285  
 7 2349720  8685                  0.264                   0.578  
 8 5337001 18208                  1.13                    0.691  
 9 1447242  9746                  0.291                  -0.00177
10 2745518 19257                  0.359                   0.739  
# ℹ 90 more rows
# ℹ 2 more variables: edpgi_all_imputed_paternal <dbl>,
#   edpgi_all_imputed_maternal <dbl>
…
